Data wrangling in R - the tidy way!
…
nanopolish

## # A tibble: 191,157 x 10
##    readname contig position leader_start adapter_start polya_start
##    <chr>    <chr>     <dbl>        <dbl>         <dbl>       <dbl>
##  1 e7f03c0 ENSMU      236           -1            -1          -1
##  2 649de85 ENSMU       45            2             3        6961
##  3 69bd9ca ENSMU       71            2             3        5489
##  4 eebb6a9 ENSMU        3          354           693        4852
##  5 ef4c72f ENSMU      162            2             3        4592
##  6 45d2338 ENSMU      139            2             3        7035
##  7 dc9cf0c ENSMU      192            2             3        6198
##  8 bb9d4ba ENSMU      291            3             4        4771
##  9 0a5988a ENSMU       91            3             4        7763
## 10 e5136e3 ENSMU       26            2             3        8007
## #  with 191,147 more rows, and 4 more variables: transcript_start <dbl>,
## #   read_rate <dbl>, polya_length <dbl>, qc_tag <chr>
…
